<svg xmlns="http://www.w3.org/2000/svg" width="14" height="14" viewBox="0 0 14 14">
  <g id="Degree_level" data-name="Degree level" transform="translate(-1069 -187)">
    <g id="Group_682" data-name="Group 682" transform="translate(1069 187)">
      <line id="Line_349" data-name="Line 349" y2="9.625" transform="translate(2.188 3.938)" fill="none" stroke="#707070" stroke-linecap="round" stroke-width="0.8"/>
      <g id="Ellipse_368" data-name="Ellipse 368" fill="none" stroke="#707070" stroke-width="0.8">
        <circle cx="2" cy="2" r="2" stroke="none"/>
        <circle cx="2" cy="2" r="1.6" fill="none"/>
      </g>
    </g>
    <g id="Group_681" data-name="Group 681" transform="translate(1074.25 187.438)">
      <path id="Union_3" data-name="Union 3" d="M1.749,8.313a1.75,1.75,0,0,1,0-3.5v0a1.75,1.75,0,1,1,0,3.5v0Z" fill="none" stroke="#707070" stroke-linecap="round" stroke-width="0.8"/>
    </g>
    <g id="Group_680" data-name="Group 680" transform="translate(1078.625 187.438)">
      <line id="Line_351" data-name="Line 351" y2="9.625" transform="translate(2.188)" fill="none" stroke="#707070" stroke-linecap="round" stroke-width="0.8"/>
      <g id="Ellipse_370" data-name="Ellipse 370" transform="translate(0.375 9.563)" fill="none" stroke="#707070" stroke-width="0.8">
        <circle cx="2" cy="2" r="2" stroke="none"/>
        <circle cx="2" cy="2" r="1.6" fill="none"/>
      </g>
    </g>
  </g>
</svg>
