<svg xmlns="http://www.w3.org/2000/svg" width="13.458" height="8.079" viewBox="0 0 13.458 8.079">
  <path id="Arrow_-_Right_3" data-name="Arrow - Right 3" d="M6.714.066a.525.525,0,0,0-.279.461V3.313H.539a.777.777,0,0,0,0,1.555h5.9V7.552a.523.523,0,0,0,.279.461A.549.549,0,0,0,7.262,8l5.707-3.513a.521.521,0,0,0,0-.892L7.262.081A.549.549,0,0,0,6.714.066" transform="translate(0.238)" fill="#fff"/>
</svg>
