<svg id="photo-camera" xmlns="http://www.w3.org/2000/svg" width="30.802" height="25" viewBox="0 0 30.802 25">
  <g id="Group_286" data-name="Group 286">
    <path id="Path_149" data-name="Path 149" d="M0,53.8V67.391A3.761,3.761,0,0,0,3.759,71.15H27.043A3.761,3.761,0,0,0,30.8,67.391V53.8a3.579,3.579,0,0,0-3.577-3.577h-5L22.1,49.7a4.569,4.569,0,0,0-4.476-3.552H13.169A4.58,4.58,0,0,0,8.694,49.7l-.119.522h-5A3.583,3.583,0,0,0,0,53.8Z" transform="translate(0 -46.15)" fill="#106afe"/>
    <circle id="Ellipse_138" data-name="Ellipse 138" cx="1.032" cy="1.032" r="1.032" transform="translate(4.186 7.869)" fill="#fff"/>
    <path id="Path_150" data-name="Path 150" d="M148.577,188.1a6.477,6.477,0,1,0-6.477-6.477A6.488,6.488,0,0,0,148.577,188.1Zm0-11.412a4.935,4.935,0,1,1-4.935,4.935A4.943,4.943,0,0,1,148.577,176.692Z" transform="translate(-133.176 -167.053)" fill="#fff"/>
  </g>
</svg>
