<svg xmlns="http://www.w3.org/2000/svg" width="13.584" height="15.078" viewBox="0 0 13.584 15.078">
  <g id="Degree_type" data-name="Degree type" transform="translate(-953 -207.5)">
    <g id="Rectangle_635" data-name="Rectangle 635" transform="translate(953 207.5)" fill="none" stroke="#707070" stroke-linejoin="round" stroke-width="0.8">
      <rect width="9" height="11" stroke="none"/>
      <rect x="0.4" y="0.4" width="8.2" height="10.2" fill="none"/>
    </g>
    <g id="Ellipse_378" data-name="Ellipse 378" transform="translate(957 213)" fill="#fff" stroke="#707070" stroke-width="0.8">
      <circle cx="3.5" cy="3.5" r="3.5" stroke="none"/>
      <circle cx="3.5" cy="3.5" r="3.1" fill="none"/>
    </g>
    <line id="Line_363" data-name="Line 363" x2="4" transform="translate(955.5 209.989)" fill="none" stroke="#707070" stroke-linecap="round" stroke-width="0.8"/>
    <line id="Line_364" data-name="Line 364" x2="3" transform="translate(955.5 211.744)" fill="none" stroke="#707070" stroke-linecap="round" stroke-width="0.8"/>
    <line id="Line_365" data-name="Line 365" x2="1" transform="translate(955.5 213.5)" fill="none" stroke="#707070" stroke-linecap="round" stroke-width="0.8"/>
    <path id="Path_4747" data-name="Path 4747" d="M2.386-.263l-2.3,2.2L1.7,2.05l.546,1.628L4.234,1.046" transform="translate(955.5 218.5)" fill="none" stroke="#707070" stroke-linejoin="round" stroke-width="0.8"/>
    <path id="Path_4748" data-name="Path 4748" d="M1.582-.684,4.344,2.162,2.619,2.05,2.073,3.678.086,1.046" transform="translate(961.84 218.292)" fill="none" stroke="#707070" stroke-linejoin="round" stroke-width="0.8"/>
    <g id="Polygon_14" data-name="Polygon 14" transform="translate(958.5 214.237)" fill="none" stroke-linecap="round" stroke-linejoin="round">
      <path d="M1.733.522a.3.3,0,0,1,.534,0l.316.618a.3.3,0,0,0,.211.158l.68.13a.3.3,0,0,1,.166.5l-.495.544a.3.3,0,0,0-.076.24l.094.73a.3.3,0,0,1-.433.306l-.595-.3a.3.3,0,0,0-.271,0l-.595.3a.3.3,0,0,1-.433-.306l.094-.73a.3.3,0,0,0-.076-.24L.36,1.924a.3.3,0,0,1,.166-.5l.68-.13a.3.3,0,0,0,.211-.158Z" stroke="none"/>
      <path d="M 2.000000476837158 1.097762584686279 L 1.861920118331909 1.367651224136353 C 1.748699903488159 1.588901281356812 1.543740034103394 1.74251127243042 1.299570083618164 1.78908109664917 L 0.9705390930175781 1.851817846298218 L 1.224819898605347 2.131391286849976 C 1.383019924163818 2.305331230163574 1.456500053405762 2.538831233978271 1.426419973373413 2.77199125289917 L 1.380629301071167 3.127140045166016 L 1.638530015945435 2.996501207351685 C 1.861530065536499 2.883581161499023 2.138449907302856 2.883561134338379 2.36149001121521 2.996521234512329 L 2.619371652603149 3.127143859863281 L 2.573580026626587 2.772021293640137 C 2.543499946594238 2.538831233978271 2.616980075836182 2.305331230163574 2.775179862976074 2.131391286849976 L 3.029462099075317 1.85181713104248 L 2.700399875640869 1.78908109664917 C 2.456259965896606 1.74251127243042 2.251299858093262 1.588901281356812 2.138070106506348 1.367621183395386 L 2.000000476837158 1.097762584686279 M 2 0.3586537837982178 C 2.105677604675293 0.3586537837982178 2.211354970932007 0.4131062030792236 2.267070055007935 0.5220112800598145 L 2.583189964294434 1.139881134033203 C 2.625349998474121 1.222271203994751 2.703169822692871 1.280591249465942 2.794080018997192 1.29793119430542 L 3.473870038986206 1.427541255950928 C 3.704149961471558 1.471451282501221 3.79734992980957 1.750671148300171 3.639610052108765 1.924091100692749 L 3.14507007598877 2.46782112121582 C 3.08585000038147 2.532931327819824 3.058209896087646 2.620761156082153 3.069469928741455 2.708051204681396 L 3.163579940795898 3.437921047210693 C 3.194390058517456 3.676781177520752 2.945350408554077 3.852741003036499 2.73048996925354 3.743911266326904 L 2.135560035705566 3.442561149597168 C 2.050339937210083 3.399401187896729 1.949660062789917 3.399401187896729 1.864439964294434 3.442561149597168 L 1.26951003074646 3.743911266326904 C 1.05465030670166 3.852741241455078 0.805610179901123 3.676781177520752 0.8364200592041016 3.437921047210693 L 0.9305300712585449 2.708051204681396 C 0.9417901039123535 2.620761156082153 0.9141499996185303 2.532931327819824 0.8549299240112305 2.46782112121582 L 0.3603899478912354 1.924091100692749 C 0.2026500701904297 1.750671148300171 0.2958500385284424 1.471451282501221 0.5261299610137939 1.42755126953125 L 1.205919981002808 1.29793119430542 C 1.29682993888855 1.280591249465942 1.374650001525879 1.222271203994751 1.416810035705566 1.139881134033203 L 1.732929944992065 0.5220112800598145 C 1.788645029067993 0.4131062030792236 1.894322395324707 0.3586537837982178 2 0.3586537837982178 Z" stroke="none" fill="#707070"/>
    </g>
  </g>
</svg>
